<svg width="7" height="9" viewBox="0 0 7 9" fill="none" xmlns="http://www.w3.org/2000/svg">
<path fill-rule="evenodd" clip-rule="evenodd" d="M3.35225 0.779967C3.39894 0.759954 3.4492 0.749634 3.5 0.749634C3.5508 0.749634 3.60106 0.759954 3.64775 0.779967L6.0455 1.80784C6.18044 1.86569 6.29544 1.96187 6.37623 2.08446C6.45702 2.20704 6.50006 2.35065 6.5 2.49747V5.06997C6.49995 5.53269 6.3776 5.98717 6.14533 6.38737C5.91306 6.78757 5.57913 7.11927 5.17737 7.34884L3.686 8.20084C3.62935 8.2332 3.56524 8.25022 3.5 8.25022C3.43476 8.25022 3.37065 8.2332 3.314 8.20084L1.82263 7.34884C1.42076 7.1192 1.08676 6.78739 0.854484 6.38705C0.622207 5.98671 0.499913 5.53206 0.5 5.06922V2.49747C0.500016 2.35071 0.543086 2.20719 0.623874 2.08467C0.704662 1.96216 0.819617 1.86604 0.9545 1.80822L3.35225 0.779967ZM4.89012 4.01509C4.95843 3.94437 4.99623 3.84964 4.99538 3.75132C4.99452 3.65299 4.95508 3.55894 4.88556 3.48941C4.81603 3.41988 4.72197 3.38044 4.62365 3.37959C4.52533 3.37874 4.4306 3.41653 4.35988 3.48484L3.125 4.71972L2.64012 4.23484C2.5694 4.16653 2.47467 4.12874 2.37635 4.12959C2.27803 4.13044 2.18397 4.16988 2.11444 4.23941C2.04491 4.30894 2.00548 4.40299 2.00462 4.50132C2.00377 4.59964 2.04157 4.69437 2.10988 4.76509L2.85988 5.51509C2.9302 5.58539 3.02556 5.62489 3.125 5.62489C3.22444 5.62489 3.3198 5.58539 3.39012 5.51509L4.89012 4.01509Z" fill="black"/>
</svg>
